{
    "/api/*": {
        "target" : "http://localhost:8000/api",
        "secure" : false,
        "logLevel":"debug",
        "changeOrigin":true,
        "parthRewrite": {
            "^/api":""
        }
    }
}